…
```r
library(jsonlite)
library(tibble)

url <- "https://webapi.bps.go.id/v1/api/dataexim/sumber/1/kodehs/01/jenishs/1/tahun/2020/periode/1/key/<BPS_APP_ID>/"
data <- fromJSON(url)

tibble(data$data)
```



```
## # A tibble: 294 × 7
##     value netweight kodehs              pod                ctr       tahun bulan
##     <dbl>     <dbl> <chr>               <chr>              <chr>     <chr> <chr>
##  1   8550      62   [01] Binatang hidup SOEKARNO-HATTA (U) AFGHANIS… 2020  [12]…
##  2    595      28   [01] Binatang hidup SOEKARNO-HATTA (U) ARMENIA   2020  [03]…
##  3    765      12   [01] Binatang hidup SOEKARNO-HATTA (U) ARMENIA   2020  [02]…
##  4    970       4   [01] Binatang hidup SOEKARNO-HATTA (U) AUSTRALIA 2020  [03]…
##  5    102      25   [01] Binatang hidup SOEKARNO-HATTA (U) AUSTRIA   2020  [10]…
##  6    146      32   [01] Binatang hidup SOEKARNO-HATTA (U) BAHRAIN   2020  [01]…
##  7  22300       9.5 [01] Binatang hidup NGURAH RAI (U)     BANGLADE… 2020  [11]…
##  8  25200      12   [01] Binatang hidup NGURAH RAI (U)     BANGLADE… 2020  [02]…
##  9 134320     252.  [01] Binatang hidup SOEKARNO-HATTA (U) BANGLADE… 2020  [12]…
## 10  20890     146.  [01] Binatang hidup SOEKARNO-HATTA (U) BANGLADE… 2020  [10]…
## # ℹ 284 more rows
```
…
```r
library(jsonlite)

url <- "https://gateway.pricebook.co.id/pb/category/product?category_id=42&brand=Samsung"
data <- fromJSON(url)
product <- data$result$product

tibble(product)
```

```
## # A tibble: 40 × 39
##    `_id`$`$id`            product_id category_id brand_id series_id product_name
##    <chr>                       <int>       <int>    <int>     <int> <chr>       
##  1 608bfed3be25e7f334741…      46142          42       92     16604 Galaxy Tab …
##  2 608bff13be25e7f33474a…      88362          42       92         0 Galaxy Tab …
##  3 608bff1abe25e7f33474b…      92990          42       92     34556 Galaxy Tab …
##  4 608bff09be25e7f334748…      81832          42       92         0 Galaxy Tab …
##  5 608bfeb9be25e7f33473c…      25430          42       92     16606 Galaxy Tab …
##  6 608bff0bbe25e7f334749…      82837          42       92         0 Galaxy Tab …
##  7 608bff0bbe25e7f334749…      82838          42       92         0 Galaxy Tab …
##  8 608bff11be25e7f33474a…      88050          42       92     34555 Galaxy Tab …
##  9 608bfee7be25e7f334743…      59191          42       92     16604 Galaxy Tab …
## 10 608bff1bbe25e7f33474b…      93994          42       92     35611 Galaxy Tab …
## # ℹ 30 more rows
## # ℹ 33 more variables: product_name_alias <chr>, category_name <chr>,
## #   category_alias <lgl>, brand_name <chr>, lowest_price <chr>,
## #   lowest_price_used <chr>, ranking_per_category <int>, rating <chr>,
## #   review_count <int>, forum_count <int>, shop_product_count <int>,
## #   shop_product_used_count <int>, primary <list>, filter <df[,3]>, ads <lgl>,
## #   image <chr>, image_media <chr>, image_raw <df[,2]>, …
```
…
