…
```r
colnames(tweet)
```

Kita lihat tiga kolom di antaranya:


```r
tweet[,c("created_at", "screen_name", "text")]
```



```
## # A tibble: 994 x 3
##    created_at          screen_name   text                                  
##    <dttm>              <chr>         <chr>                                 
##  1 2019-01-16 12:35:57 hasnahahahah~ @CommuterLine kereta terakhir dr jkt ~
##  2 2019-01-16 12:35:20 iffa_retno69  "#dadakan #padangsidempuan #sidikalan~
##  3 2019-01-13 19:09:55 iffa_retno69  "#padangsidempuan #sidikalang #tebing~
##  4 2019-01-16 12:11:59 terrotouli    Kekurangan dari pembangunan infrastru~
##  5 2019-01-16 12:10:53 aininur56     5. Sekretaris PCNU Kota Bogor ini men~
##  6 2019-01-16 12:07:08 CommuterLine  @imbecillic Selamat malam, untuk pemb~
##  7 2019-01-13 14:36:10 CommuterLine  #InfoLintas : KA 1460 (Jakarta Kota-B~
##  8 2019-01-13 12:46:36 CommuterLine  @itsmeanggii Cikarang-Jakarta Kota te~
##  9 2019-01-15 13:34:21 CommuterLine  @ditakswn Selamat malam. Kami informa~
## 10 2019-01-15 16:41:12 CommuterLine  @CahyoWarih Selamat malam. Dapat kami~
## # ... with 984 more rows
```
…
```r
timeline <- get_timeline("nurandi")
```

Objek yang dihasilkan berupa *data frame/tibble* dengan lebih dari 80 kolom. 


```r
timeline[,c("created_at", "source", "text")]
```



```
## # A tibble: 100 x 3
##    created_at          source        text                                  
##    <dttm>              <chr>         <chr>                                 
##  1 2019-01-16 03:23:37 Twitter Web ~ https://t.co/b5KGxX56L5               
##  2 2019-01-07 04:51:17 IFTTT         New blog article: Apa Itu Jekyll dan ~
##  3 2018-12-13 23:53:31 Twitter for ~ "Semoga kita bukan termasuk orang yan~
##  4 2018-09-18 12:47:30 Twitter for ~ aku kalo ke ATM lebih takut keliatan ~
##  5 2018-08-17 01:37:24 Twitter Web ~ "@Telkomsel Hi, saya berlangganan pak~
##  6 2018-07-05 01:55:25 Twitter for ~ @IndonesiaGaruda halo, GA-824 CGK-SIN~
##  7 2018-06-02 16:51:35 Twitter for ~ "English: i know i supposed to meet y~
##  8 2018-04-23 04:54:58 Twitter for ~ @imigrasi_jakbar Min, saya sudah daft~
##  9 2018-04-04 08:37:53 Twitter for ~ @TokopediaCare verifikasi pembayatan ~
## 10 2018-03-13 04:42:15 Twitter for ~ @BPJSTKinfo Terima kasih infonya. BPJ~
## # ... with 90 more rows
```
…
Output yang dihasilkan berupa *tibble* dari *user_id*.


```r
followers
```



```
## # A tibble: 255 x 1
##    user_id            
##    <chr>              
##  1 743414321514897408 
##  2 1042477396547395585
##  3 1049626193857732611
##  4 49285223           
##  5 1018277822542929920
##  6 1039338205743538176
##  7 1027183219244847110
##  8 73331490           
##  9 58994539           
## 10 986940727077699585 
## # ... with 245 more rows
```


```r
followings
```



```
## # A tibble: 325 x 2
##    user    user_id           
##    <chr>   <chr>             
##  1 nurandi 59106338          
##  2 nurandi 862600351         
##  3 nurandi 2160025940        
##  4 nurandi 80126180          
##  5 nurandi 3272463157        
##  6 nurandi 176519485         
##  7 nurandi 1200006384        
##  8 nurandi 775449094739197953
##  9 nurandi 68746721          
## 10 nurandi 1408142352        
## # ... with 315 more rows
```
…
```r
detail_followings <- lookup_users(followings$user_id)
```


```r
detail_followings[,c("created_at", "screen_name", "location", "description")]
```



```
## # A tibble: 325 x 4
##    created_at          screen_name  location     description               
##    <dttm>              <chr>        <chr>        <chr>                     
##  1 2019-01-07 20:13:53 perrystephe~ Sydney       I tweet (rarely) about #r~
##  2 2019-01-16 12:03:30 kitabisacom  Indonesia    Situs galang dana dan don~
##  3 2019-01-11 20:56:56 KJRIToronto  Toronto, Ka~ Akun twitter Konsulat Jen~
##  4 2018-10-24 15:30:47 kitchenerma~ Kitchener, ~ 1017 Victoria St N. (519)~
##  5 2019-01-16 01:23:53 imigrasi_ja~ Kota Tua, J~ "Kantor Imigrasi Kelas I ~
##  6 2019-01-16 12:19:11 flerlagekr   Williamspor~ Tableau Zen Master <U+25CF> Anal~
##  7 2019-01-16 12:52:46 INABadminton Cipayung, J~ "Akun Twitter Resmi Humas~
##  8 2019-01-15 20:20:40 goodfellow_~ San Francis~ Google Brain research sci~
##  9 2019-01-16 01:42:39 fchollet     Mountain Vi~ Deep learning @google. Cr~
## 10 2019-01-13 22:19:13 math_rachel  San Francis~ co-founder https://t.co/Z~
## # ... with 315 more rows
```
…
